%YAML 1.1
%TAG !u! tag:unity3d.com,2011:
--- !u!1 &1715178800478753596
GameObject:
  m_ObjectHideFlags: 0
  m_CorrespondingSourceObject: {fileID: 0}
  m_PrefabInstance: {fileID: 0}
  m_PrefabAsset: {fileID: 0}
  serializedVersion: 6
  m_Component:
  - component: {fileID: 1715178800478753593}
  - component: {fileID: 1715178800478753598}
  - component: {fileID: 1715178800478753599}
  m_Layer: 0
  m_Name: RoomController
  m_TagString: Untagged
  m_Icon: {fileID: 0}
  m_NavMeshLayer: 0
  m_StaticEditorFlags: 0
  m_IsActive: 1
--- !u!4 &1715178800478753593
Transform:
  m_ObjectHideFlags: 0
  m_CorrespondingSourceObject: {fileID: 0}
  m_PrefabInstance: {fileID: 0}
  m_PrefabAsset: {fileID: 0}
  m_GameObject: {fileID: 1715178800478753596}
  m_LocalRotation: {x: 0, y: 0, z: 0, w: 1}
  m_LocalPosition: {x: -391.6584, y: 132.25916, z: 579.25}
  m_LocalScale: {x: 1, y: 1, z: 1}
  m_Children: []
  m_Father: {fileID: 0}
  m_RootOrder: 0
  m_LocalEulerAnglesHint: {x: 0, y: 0, z: 0}
--- !u!114 &1715178800478753598
MonoBehaviour:
  m_ObjectHideFlags: 0
  m_CorrespondingSourceObject: {fileID: 0}
  m_PrefabInstance: {fileID: 0}
  m_PrefabAsset: {fileID: 0}
  m_GameObject: {fileID: 1715178800478753596}
  m_Enabled: 1
  m_EditorHideFlags: 0
  m_Script: {fileID: 11500000, guid: fd8728ccbd5cd124ba3330cd9a4e212e, type: 3}
  m_Name: 
  m_EditorClassIdentifier: 
  isGameLoaded: 0
  currentScene: 0
  playersInRoom: 0
  myNumberInRoom: 0
  playerInGame: 0
  startingTime: 10
  university:
  - {fileID: 5523356637235929710, guid: b3792f301b453114bacd566c5691c2e5, type: 3}
  - {fileID: 637561616803259680, guid: 957e261346dcdfb48aaf6448835bcc48, type: 3}
  industrial: []
  referencia_lobby:
  - {fileID: 5722637348575851519, guid: 308d86ac7da241d4e956ff7a0c1ec325, type: 3}
  - {fileID: 2411669230375364179, guid: 1c391f3ca0dfd8f4b8833739f7516248, type: 3}
  industrial_lobby:
  - {fileID: 3671083456638890088, guid: ffc795f684efb694cb4fc3c27043889c, type: 3}
  - {fileID: 5451302583915018148, guid: a618a77e91c86d84b842c1c81cda1061, type: 3}
  referencia_laboratory_espoch:
  - {fileID: 4473821689582241842, guid: 86cf1225d2cda4847866a1f01cab1d0f, type: 3}
  - {fileID: 6900190498019580013, guid: 8ea9f5e023202e6409513ac0bb079c90, type: 3}
  - {fileID: 7584925506239592830, guid: e210532075f8dd34f84d6b1ce60d7282, type: 3}
  referencia_laboratory_espe: []
  referencia_character:
  - {fileID: 3150687264841172716, guid: 93a23866a376bad4a9057a8e726f491b, type: 3}
  industrial_laboratory:
  - {fileID: 8675611373745085291, guid: 25c6b80708eb3d24abd35f8e6e751017, type: 3}
  - {fileID: 522854549695353896, guid: 519907ceff77ab44db31d0a83725f050, type: 3}
  industrial_character:
  - {fileID: 5522621869518258996, guid: a26f2d9e3eb7c3f4cb0615580d8d7c9f, type: 3}
  - {fileID: 3769930620184437480, guid: fc485bc806267884b939afc2d81dd804, type: 3}
--- !u!114 &1715178800478753599
MonoBehaviour:
  m_ObjectHideFlags: 0
  m_CorrespondingSourceObject: {fileID: 0}
  m_PrefabInstance: {fileID: 0}
  m_PrefabAsset: {fileID: 0}
  m_GameObject: {fileID: 1715178800478753596}
  m_Enabled: 1
  m_EditorHideFlags: 0
  m_Script: {fileID: 11500000, guid: aa584fbee541324448dd18d8409c7a41, type: 3}
  m_Name: 
  m_EditorClassIdentifier: 
  ObservedComponentsFoldoutOpen: 0
  Group: 0
  prefixField: -1
  observableSearch: 2
  Synchronization: 0
  OwnershipTransfer: 0
  ObservedComponents: []
  viewIdField: 0
  InstantiationId: 0
  isRuntimeInstantiated: 0
